…
# $meta_data
# # A tibble: 3 x 57
#   author author_fullname author_premium author_patreon_… can_gild can_mod_post clicked comment_limit created created_utc downs edited fullname gilded hidden hide_score
#   <chr>  <chr>           <chr>          <chr>            <chr>    <chr>        <chr>   <chr>         <chr>   <chr>       <chr> <chr>  <chr>    <chr>  <chr>  <chr>     
# 1 optim… t2_d5h4t        FALSE          FALSE            FALSE    FALSE        FALSE   2048          158725… 1587223148  0     FALSE  t3_g3p5… 0      FALSE  FALSE     
# 2 Polit… t2_onl9u        TRUE           FALSE            FALSE    FALSE        FALSE   2048          158727… 1587246398  0     15872… t3_g3vq… 0      FALSE  FALSE     
# 3 Zhana… t2_4o78am42     TRUE           FALSE            FALSE    FALSE        FALSE   2048          158726… 1587240554  0     FALSE  t3_g3u3… 0      FALSE  FALSE     
# # … with 41 more variables: id <chr>, is_crosspostable <chr>, is_meta <chr>, is_original_content <chr>, is_reddit_media_domain <chr>, is_robot_indexable <chr>,
# #   is_self <chr>, is_video <chr>, locked <chr>, media_only <chr>, name <chr>, no_follow <chr>, num_comments <chr>, num_crossposts <chr>, num_duplicates <chr>,
# #   over_18 <chr>, parent_whitelist_status <chr>, permalink <chr>, pinned <chr>, pwls <chr>, quarantine <chr>, saved <chr>, score <chr>, selftext <chr>,
# #   send_replies <chr>, shortlink <chr>, spoiler <chr>, stickied <chr>, subreddit <chr>, subreddit_id <chr>, subreddit_name_prefixed <chr>, subreddit_subscribers <chr>,
# #   subreddit_type <chr>, thumbnail <chr>, title <chr>, total_awards_received <chr>, ups <chr>, upvote_ratio <chr>, url <chr>, visited <chr>, wls <chr>
# 
# $comments
# # A tibble: 1,361 x 28
#    author author_fullname author_patreon_… author_premium body  can_gild can_mod_post controversiality created created_utc         depth downs fullname id    is_root
#    <chr>  <chr>           <lgl>            <lgl>          <chr> <lgl>    <lgl>                   <dbl>   <dbl> <dttm>              <dbl> <dbl> <chr>    <chr> <lgl>  
#  1 ThatD… t2_48b22        FALSE            FALSE          "[Mi… TRUE     FALSE                       0  1.59e9 2020-04-18 15:44:07     0     0 t1_fnsm… fnsm… TRUE   
#  2 NotBa… t2_4db72jwz     FALSE            FALSE          "Two… TRUE     FALSE                       0  1.59e9 2020-04-18 16:48:16     0     0 t1_fnst… fnst… TRUE   
#  3 NotBa… t2_4db72jwz     FALSE            FALSE          "Rob… TRUE     FALSE                       0  1.59e9 2020-04-18 16:48:40     0     0 t1_fnst… fnst… TRUE   
#  4 NotBa… t2_4db72jwz     FALSE            FALSE          "Thr… TRUE     FALSE                       0  1.59e9 2020-04-18 16:49:17     0     0 t1_fnst… fnst… TRUE   
#  5 glass… t2_niwn3        FALSE            FALSE          "[To… TRUE     FALSE                       0  1.59e9 2020-04-18 15:38:59     0     0 t1_fnsl… fnsl… TRUE   
#  6 4bloc… t2_53xqk        FALSE            TRUE           "On … TRUE     FALSE                       0  1.59e9 2020-04-18 15:22:14     0     0 t1_fnsk… fnsk… TRUE   
#  7 glass… t2_niwn3        FALSE            FALSE          "[Sa… TRUE     FALSE                       0  1.59e9 2020-04-18 15:38:31     0     0 t1_fnsl… fnsl… TRUE   
#  8 NotBa… t2_4db72jwz     FALSE            FALSE          "I'm… TRUE     FALSE                       0  1.59e9 2020-04-18 16:49:05     0     0 t1_fnst… fnst… TRUE   
#  9 NotBa… t2_4db72jwz     FALSE            FALSE          "Som… TRUE     FALSE                       0  1.59e9 2020-04-18 16:50:40     0     0 t1_fnst… fnst… TRUE   
# 10 NotBa… t2_4db72jwz     FALSE            FALSE          "Thr… TRUE     FALSE                       0  1.59e9 2020-04-18 16:49:54     0     0 t1_fnst… fnst… TRUE   
# # … with 1,351 more rows, and 13 more variables: is_submitter <lgl>, link_id <chr>, name <chr>, no_follow <lgl>, parent_id <chr>, permalink <chr>, score <dbl>,
# #   submission <chr>, subreddit <chr>, subreddit_id <chr>, total_awards_received <dbl>, ups <dbl>, time_gathered_utc <dttm>
…
# > reddit_by_url
# $meta_data
# # A tibble: 1 x 58
#   author author_fullname author_premium author_patreon_… author_premium can_gild can_mod_post clicked comment_limit created created_utc downs edited fullname gilded hidden
#   <chr>  <chr>           <chr>          <chr>            <chr>          <chr>    <chr>        <chr>   <chr>         <chr>   <chr>       <chr> <chr>  <chr>    <chr>  <chr> 
# 1 Reshi… t2_pz3ksp9      FALSE          FALSE            FALSE          FALSE    FALSE        FALSE   2048          158726… 1587237472  0     15872… t3_g3t7… 0      FALSE 
# # … with 42 more variables: hide_score <chr>, id <chr>, is_crosspostable <chr>, is_meta <chr>, is_original_content <chr>, is_reddit_media_domain <chr>,
# #   is_robot_indexable <chr>, is_self <chr>, is_video <chr>, locked <chr>, media_only <chr>, name <chr>, no_follow <chr>, num_comments <chr>, num_crossposts <chr>,
# #   num_duplicates <chr>, over_18 <chr>, parent_whitelist_status <chr>, permalink <chr>, pinned <chr>, pwls <chr>, quarantine <chr>, saved <chr>, score <chr>, selftext <chr>,
# #   send_replies <chr>, shortlink <chr>, spoiler <chr>, stickied <chr>, subreddit <chr>, subreddit_id <chr>, subreddit_name_prefixed <chr>, subreddit_subscribers <chr>,
# #   subreddit_type <chr>, thumbnail <chr>, title <chr>, total_awards_received <chr>, ups <chr>, upvote_ratio <chr>, url <chr>, visited <chr>, wls <chr>
# 
# $comments
# # A tibble: 83 x 28
#    author author_fullname author_patreon_… author_premium body  can_gild can_mod_post controversiality created created_utc         depth downs fullname id    is_root
#    <chr>  <chr>           <lgl>            <lgl>          <chr> <lgl>    <lgl>                   <dbl>   <dbl> <dttm>              <dbl> <dbl> <chr>    <chr> <lgl>  
#  1 chick… t2_3r0xzvx2     FALSE            FALSE          "The… TRUE     FALSE                       0  1.59e9 2020-04-18 20:33:43     0     0 t1_fnth… fnth… TRUE   
#  2 ducke… t2_mtvk7        FALSE            FALSE          "I w… TRUE     FALSE                       0  1.59e9 2020-04-18 22:16:01     0     0 t1_fntt… fntt… TRUE   
#  3 craft… t2_4sopcg4a     FALSE            FALSE          "I'v… TRUE     FALSE                       0  1.59e9 2020-04-18 21:33:11     0     0 t1_fnto… fnto… TRUE   
#  4 Wiggy… t2_ypzb1        FALSE            FALSE          "Aww… TRUE     FALSE                       0  1.59e9 2020-04-18 19:53:54     0     0 t1_fntd… fntd… TRUE   
#  5 swaga… t2_175eo2       FALSE            FALSE          "Som… TRUE     FALSE                       0  1.59e9 2020-04-18 20:46:37     0     0 t1_fntj… fntj… TRUE   
#  6 Storm… t2_5ifb4bhk     FALSE            FALSE          "Wha… TRUE     FALSE                       0  1.59e9 2020-04-18 20:01:45     0     0 t1_fnte… fnte… TRUE   
#  7 pluto… t2_4hojq3pe     FALSE            FALSE          "Hec… TRUE     FALSE                       0  1.59e9 2020-04-18 20:16:57     0     0 t1_fntg… fntg… TRUE   
#  8 Willo… t2_tee6h        FALSE            FALSE          "Do … TRUE     FALSE                       0  1.59e9 2020-04-18 23:26:43     0     0 t1_fnu0… fnu0… TRUE   
#  9 becky… t2_58dcc        FALSE            FALSE          "Ann… TRUE     FALSE                       0  1.59e9 2020-04-18 22:29:03     0     0 t1_fntu… fntu… TRUE   
# 10 Nicky… t2_r7fhd        FALSE            FALSE          "The… TRUE     FALSE                       0  1.59e9 2020-04-18 22:14:22     0     0 t1_fnts… fnts… TRUE   
# # … with 73 more rows, and 13 more variables: is_submitter <lgl>, link_id <chr>, name <chr>, no_follow <lgl>, parent_id <chr>, permalink <chr>, score <dbl>, submission <chr>,
# #   subreddit <chr>, subreddit_id <chr>, total_awards_received <dbl>, ups <dbl>, time_gathered_utc <dttm>
…
